{
  "stringTable": {
    "0": "C:/code/android/EzsecVPN/HelloJNI/app/.externalNativeBuild/cmake/x86_64Release/x86_64",
    "1": "--target=x86_64-none-linux-android23 --gcc-toolchain=C:/Users/dkore/AppData/Local/Android/Sdk/ndk-bundle/toolchains/llvm/prebuilt/windows-x86_64 --sysroot=C:/Users/dkore/AppData/Local/Android/Sdk/ndk-bundle/toolchains/llvm/prebuilt/windows-x86_64/sysroot -Dhello_jni_EXPORTS -g -DANDROID -fdata-sections -ffunction-sections -funwind-tables -fstack-protector-strong -no-canonical-prefixes -fno-addrsig -Wa,--noexecstack -Wformat -Werror=format-security -O2 -DNDEBUG -fPIC"
  },
  "buildFiles": [
    "C:\\Users\\dkore\\AppData\\Local\\Android\\Sdk\\ndk-bundle\\build\\cmake\\platforms.cmake",
    "C:\\code\\android\\EzsecVPN\\HelloJNI\\app\\src\\main\\cpp\\CMakeLists.txt",
    "C:\\Users\\dkore\\AppData\\Local\\Android\\Sdk\\ndk-bundle\\build\\cmake\\android.toolchain.cmake"
  ],
  "cleanCommands": [
    "C:\\Users\\dkore\\AppData\\Local\\Android\\Sdk\\cmake\\3.10.2.4988404\\bin\\cmake.exe --build \"C:\\code\\android\\EzsecVPN\\HelloJNI\\app\\.externalNativeBuild\\cmake\\x86_64Release\\x86_64\" --target clean"
  ],
  "libraries": {
    "hello-jni-Release-x86_64": {
      "buildCommand": "C:\\Users\\dkore\\AppData\\Local\\Android\\Sdk\\cmake\\3.10.2.4988404\\bin\\cmake.exe --build \"C:\\code\\android\\EzsecVPN\\HelloJNI\\app\\.externalNativeBuild\\cmake\\x86_64Release\\x86_64\" --target hello-jni",
      "buildType": "release",
      "toolchain": "4003910380",
      "abi": "x86_64",
      "artifactName": "hello-jni",
      "files": [
        {
          "src": "C:\\code\\android\\EzsecVPN\\HelloJNI\\app\\src\\main\\cpp\\hello-jni.c",
          "flagsOrdinal": 1,
          "workingDirectoryOrdinal": 0
        },
        {
          "src": "C:\\code\\android\\EzsecVPN\\HelloJNI\\app\\src\\main\\cpp\\bye-jni.c",
          "flagsOrdinal": 1,
          "workingDirectoryOrdinal": 0
        }
      ],
      "headers": [],
      "output": "C:\\code\\android\\EzsecVPN\\HelloJNI\\app\\build\\intermediates\\cmake\\x86_64\\release\\obj\\x86_64\\libhello-jni.so"
    }
  },
  "toolchains": {
    "4003910380": {
      "cCompilerExecutable": "C:\\Users\\dkore\\AppData\\Local\\Android\\Sdk\\ndk-bundle\\toolchains\\llvm\\prebuilt\\windows-x86_64\\bin\\clang.exe"
    }
  },
  "cFileExtensions": [
    "c"
  ],
  "cppFileExtensions": []
}